﻿job openings,quarter,unemployment,year,month,date
4652,3,7170,2007,9,9/1/07
4636,4,7237,2007,10,10/1/07
4646,4,7240,2007,11,11/1/07
4545,4,7645,2007,12,12/1/07
4624,1,7685,2008,1,1/1/08
4279,1,7497,2008,2,2/1/08
4225,1,7822,2008,3,3/1/08
4035,2,7637,2008,4,4/1/08
4194,2,8395,2008,5,5/1/08
3830,2,8575,2008,6,6/1/08
3749,3,8937,2008,7,7/1/08
3674,3,9438,2008,8,8/1/08
3222,3,9494,2008,9,9/1/08
3377,4,10074,2008,10,10/1/08
3231,4,10538,2008,11,11/1/08
3146,4,11286,2008,12,12/1/08
2738,1,12058,2009,1,1/1/09
2864,1,12898,2009,2,2/1/09
2534,1,13426,2009,3,3/1/09
2295,2,13853,2009,4,4/1/09
2549,2,14499,2009,5,5/1/09
2503,2,14707,2009,6,6/1/09
2232,3,14601,2009,7,7/1/09
2338,3,14814,2009,8,8/1/09
2487,3,15009,2009,9,9/1/09
2406,4,15352,2009,10,10/1/09
2503,4,15219,2009,11,11/1/09
2568,4,15098,2009,12,12/1/09
2837,1,15046,2010,1,1/1/10
2666,1,15113,2010,2,2/1/10
2679,1,15202,2010,3,3/1/10
3153,2,15325,2010,4,4/1/10
2988,2,14849,2010,5,5/1/10
2801,2,14474,2010,6,6/1/10
3082,3,14512,2010,7,7/1/10
2999,3,14648,2010,8,8/1/10
2918,3,14579,2010,9,9/1/10
3235,4,14516,2010,10,10/1/10
3211,4,15081,2010,11,11/1/10
3058,4,14348,2010,12,12/1/10
3104,1,14013,2011,1,1/1/11
3226,1,13820,2011,2,2/1/11
3261,1,13737,2011,3,3/1/11
3259,2,13957,2011,4,4/1/11
3179,2,13855,2011,5,5/1/11
3455,2,13962,2011,6,6/1/11
3623,3,13763,2011,7,7/1/11
3329,3,13818,2011,8,8/1/11
3774,3,13948,2011,9,9/1/11
3619,4,13594,2011,10,10/1/11
3565,4,13302,2011,11,11/1/11
3768,4,13093,2011,12,12/1/11
3909,1,12797,2012,1,1/1/12
3616,1,12813,2012,2,2/1/12
3979,1,12713,2012,3,3/1/12
3793,2,12646,2012,4,4/1/12
3835,2,12660,2012,5,5/1/12
3911,2,12692,2012,6,6/1/12
3735,3,12656,2012,7,7/1/12
3809,3,12471,2012,8,8/1/12
3882,3,12115,2012,9,9/1/12
3775,4,12124,2012,10,10/1/12
3878,4,12005,2012,11,11/1/12
3970,4,12298,2012,12,12/1/12
3923,1,12471,2013,1,1/1/13
4004,1,11950,2013,2,2/1/13
4076,1,11689,2013,3,3/1/13
3988,2,11760,2013,4,4/1/13
4145,2,11654,2013,5,5/1/13
4150,2,11751,2013,6,6/1/13
3885,3,11335,2013,7,7/1/13
4085,3,11279,2013,8,8/1/13
4128,3,11270,2013,9,9/1/13
4222,4,11136,2013,10,10/1/13
4119,4,10787,2013,11,11/1/13
4121,4,10404,2013,12,12/1/13
4127,1,10202,2014,1,1/1/14
4373,1,10349,2014,2,2/1/14
4388,1,10380,2014,3,3/1/14
4566,2,9702,2014,4,4/1/14
4747,2,9859,2014,5,5/1/14
4982,2,9460,2014,6,6/1/14
4846,3,9608,2014,7,7/1/14
5349,3,9599,2014,8,8/1/14
4914,3,9262,2014,9,9/1/14
5012,4,8990,2014,10,10/1/14
4843,4,9090,2014,11,11/1/14
5130,4,8717,2014,12,12/1/14
5344,1,8885,2015,1,1/1/15
5466,1,8599,2015,2,2/1/15
5210,1,8515,2015,3,3/1/15
5598,2,8550,2015,4,4/1/15
5563,2,8834,2015,5,5/1/15
5248,2,8247,2015,6,6/1/15
6056,3,8167,2015,7,7/1/15
5467,3,7992,2015,8,8/1/15
5488,3,7907,2015,9,9/1/15
5773,4,7922,2015,10,10/1/15
5708,4,8000,2015,11,11/1/15
5845,4,7907,2015,12,12/1/15
6012,1,7627,2016,1,1/1/16
5770,1,7702,2016,2,2/1/16
6129,1,7961,2016,3,3/1/16
5803,2,8067,2016,4,4/1/16
5777,2,7652,2016,5,5/1/16
5742,2,7744,2016,6,6/1/16
5962,3,7641,2016,7,7/1/16
5677,3,7784,2016,8,8/1/16
5868,3,7953,2016,9,9/1/16
5591,4,7811,2016,10,10/1/16
5971,4,7553,2016,11,11/1/16
5964,4,7521,2016,12,12/1/16
5617,1,7468,2017,1,1/1/17
5923,1,7379,2017,2,2/1/17
5811,1,7073,2017,3,3/1/17
6091,2,7089,2017,4,4/1/17
5826,2,7000,2017,5,5/1/17
6305,2,6873,2017,6,6/1/17
6238,3,6892,2017,7,7/1/17
6276,3,7082,2017,8,8/1/17
6320,3,6854,2017,9,9/1/17
6408,4,6700,2017,10,10/1/17
6271,4,6774,2017,11,11/1/17
6336,4,6632,2017,12,12/1/17
6621,1,6489,2018,1,1/1/18
6552,1,6581,2018,2,2/1/18
6818,1,6472,2018,3,3/1/18
6877,2,6459,2018,4,4/1/18
7016,2,6196,2018,5,5/1/18
7230,2,6447,2018,6,6/1/18
7190,3,6195,2018,7,7/1/18
7208,3,6156,2018,8,8/1/18
7411,3,6073,2018,9,9/1/18
7304,4,6211,2018,10,10/1/18
7594,4,6115,2018,11,11/1/18
7489,4,6389,2018,12,12/1/18
7517,1,6439,2019,1,1/1/19
7072,1,6115,2019,2,2/1/19
7337,1,6182,2019,3,3/1/19
7191,2,5911,2019,4,4/1/19
7311,2,5941,2019,5,5/1/19
7139,2,5909,2019,6,6/1/19
7051,3,6008,2019,7,7/1/19
7172,3,5981,2019,8,8/1/19
7160,3,5775,2019,9,9/1/19
7325,4,5957,2019,10,10/1/19
6919,4,5911,2019,11,11/1/19
6709,4,5870,2019,12,12/1/19
7184,1,5804,2020,1,1/1/20
6995,1,5708,2020,2,2/1/20
5794,1,7184,2020,3,3/1/20
4686,2,23050,2020,4,4/1/20
5581,2,20939,2020,5,5/1/20
6119,2,17624,2020,6,6/1/20
6514,3,16324,2020,7,7/1/20
6360,3,13521,2020,8,8/1/20
6512,3,12599,2020,9,9/1/20
6820,4,11090,2020,10,10/1/20
6875,4,10760,2020,11,11/1/20
6854,4,10795,2020,12,12/1/20
7175,1,10155,2021,1,1/1/21
7760,1,9982,2021,2,2/1/21
8399,1,9712,2021,3,3/1/21
9288,2,9737,2021,4,4/1/21
9840,2,9257,2021,5,5/1/21
10069,2,9508,2021,6,6/1/21
10882,3,8704,2021,7,7/1/21
10960,3,8324,2021,8,8/1/21
10882,3,7677,2021,9,9/1/21
11368,4,7345,2021,10,10/1/21
11232,4,6780,2021,11,11/1/21
11826,4,6329,2021,12,12/1/21
11487,1,6511,2022,1,1/1/22
11601,1,6272,2022,2,2/1/22
12027,1,5972,2022,3,3/1/22
11755,2,5968,2022,4,4/1/22
11443,2,5979,2022,5,5/1/22
10961,2,5945,2022,6,6/1/22
11380,3,5718,2022,7,7/1/22
10198,3,6021,2022,8,8/1/22
10854,3,5770,2022,9,9/1/22
10471,4,6053,2022,10,10/1/22
10746,4,6000,2022,11,11/1/22
11234,4,5722,2022,12,12/1/22
10563,1,5694,2023,1,1/1/23
9974,1,5936,2023,2,2/1/23
9745,1,5839,2023,3,3/1/23
10320,2,5657,2023,4,4/1/23
9616,2,6097,2023,5,5/1/23
9165,2,5957,2023,6,6/1/23
8920,3,5841,2023,7,7/1/23
9497,3,6355,2023,8,8/1/23
9553,3,6360,2023,9,9/1/23